enBruce
@3$  #1$  |&8$
5
После битвы Предатели тянут 2|. Один оставляют, а другой замешивают в колоду.

enCapture
@3$  #1$  |&8$
5
Призыв рекутов и Найм наемников дает меньше на 1#.

enGathering
@4$  #1$  |&7$
6
До Снабжения каждый игрок перемещают все # из Замка в Лагерь.

enIrvine
@3$  #1$  |&8$
5
Обладатель карты Чести не обязан поддерживать Шотландию.

enKing
@4$  #1$  |&8$
5
До Снабжения каждый игрок теряет 1$ за каждый @.

enNothern
@4$  #1$  |&8$
4
После вскрытия предатели добавляют 1# в свои Лагеря.

enRaid
@2$  #1$  |&8$
6
Защитники получат &6$, если победят.

enRebels
@4$  #1$  |&8$
5
Один раз во время Снабжения игрок может заплатить 1$, чтобы добавить 3# в Лагерь.

enRetreat
@4$  #1$  |&8$
5
Защитники получат 1#, если проиграют.

enStirling
@3$  #1$  |&8$
5
После битвы обладатель самой большой армии получит 2$, если он один.

enStone
@3$  #1$  |&6$
4
Предатели получат 1@, если победят.

knFalkirk
4$  --  |4$
10
.

knMenteit
4$  1$  |&6$
6
После битвы обладатели самой большой армии теряют 2$.

knMortal
4$  1$  |&8$
8
После определения сторон, сбросьте все # c Главного лагеря.

knThree
4$  --  |4$
15
До Снабжения три раза Поднимается ополчение.

knWallace
4$  1$  |&8$
9
В этом раунде @ не действуют.